%YAML 1.1
%TAG !u! tag:unity3d.com,2011:
--- !u!21 &2100000
Material:
  serializedVersion: 6
  m_ObjectHideFlags: 0
  m_CorrespondingSourceObject: {fileID: 0}
  m_PrefabInstance: {fileID: 0}
  m_PrefabAsset: {fileID: 0}
  m_Name: Sea
  m_Shader: {fileID: -6465566751694194690, guid: 4da008fbbb51809418ceaa92104cefa8,
    type: 3}
  m_ShaderKeywords: _GLOSSINESS_FROM_BASE_ALPHA _SPECULAR_COLOR
  m_LightmapFlags: 4
  m_EnableInstancingVariants: 0
  m_DoubleSidedGI: 0
  m_CustomRenderQueue: -1
  stringTagMap: {}
  disabledShaderPasses: []
  m_SavedProperties:
    serializedVersion: 3
    m_TexEnvs:
    - Texture2D_2F99DBD1:
        m_Texture: {fileID: 2800000, guid: 04b21fb3abaccad48b92ef380ccb5a57, type: 3}
        m_Scale: {x: 1, y: 1}
        m_Offset: {x: 0, y: 0}
    - Texture2D_4331C400:
        m_Texture: {fileID: 2800000, guid: 06844542a644a9c439d0186c27dd7d40, type: 3}
        m_Scale: {x: 1, y: 1}
        m_Offset: {x: 0, y: 0}
    - Texture2D_A2C7E481:
        m_Texture: {fileID: 2800000, guid: 06844542a644a9c439d0186c27dd7d40, type: 3}
        m_Scale: {x: 1, y: 1}
        m_Offset: {x: 0, y: 0}
    - Texture2D_D6A1A941:
        m_Texture: {fileID: 0}
        m_Scale: {x: 1, y: 1}
        m_Offset: {x: 0, y: 0}
    - _AlphaTex:
        m_Texture: {fileID: 0}
        m_Scale: {x: 1, y: 1}
        m_Offset: {x: 0, y: 0}
    - _BaseMap:
        m_Texture: {fileID: 2800000, guid: d80444717ee5f4a4c906493fc01a2664, type: 3}
        m_Scale: {x: 1, y: 1}
        m_Offset: {x: 0, y: 0}
    - _BumpMap:
        m_Texture: {fileID: 0}
        m_Scale: {x: 1, y: 1}
        m_Offset: {x: 0, y: 0}
    - _DetailAlbedoMap:
        m_Texture: {fileID: 0}
        m_Scale: {x: 1, y: 1}
        m_Offset: {x: 0, y: 0}
    - _DetailMask:
        m_Texture: {fileID: 0}
        m_Scale: {x: 1, y: 1}
        m_Offset: {x: 0, y: 0}
    - _DetailNormalMap:
        m_Texture: {fileID: 0}
        m_Scale: {x: 1, y: 1}
        m_Offset: {x: 0, y: 0}
    - _EmissionMap:
        m_Texture: {fileID: 0}
        m_Scale: {x: 1, y: 1}
        m_Offset: {x: 0, y: 0}
    - _MainTex:
        m_Texture: {fileID: 2800000, guid: d80444717ee5f4a4c906493fc01a2664, type: 3}
        m_Scale: {x: 1, y: 1}
        m_Offset: {x: 0, y: 0}
    - _MetallicGlossMap:
        m_Texture: {fileID: 0}
        m_Scale: {x: 1, y: 1}
        m_Offset: {x: 0, y: 0}
    - _OcclusionMap:
        m_Texture: {fileID: 0}
        m_Scale: {x: 1, y: 1}
        m_Offset: {x: 0, y: 0}
    - _ParallaxMap:
        m_Texture: {fileID: 0}
        m_Scale: {x: 1, y: 1}
        m_Offset: {x: 0, y: 0}
    - _SpecGlossMap:
        m_Texture: {fileID: 0}
        m_Scale: {x: 1, y: 1}
        m_Offset: {x: 0, y: 0}
    - _Texture2DAsset_53D57988_Out_0:
        m_Texture: {fileID: 2800000, guid: 06844542a644a9c439d0186c27dd7d40, type: 3}
        m_Scale: {x: 1, y: 1}
        m_Offset: {x: 0, y: 0}
    - _Texture2DAsset_650157D9_Out_0:
        m_Texture: {fileID: 2800000, guid: 791775aaaeee4984ba57c67fbd3f7e06, type: 3}
        m_Scale: {x: 1, y: 1}
        m_Offset: {x: 0, y: 0}
    - _Texture2DAsset_856A90DE_Out_0:
        m_Texture: {fileID: 2800000, guid: 06844542a644a9c439d0186c27dd7d40, type: 3}
        m_Scale: {x: 1, y: 1}
        m_Offset: {x: 0, y: 0}
    m_Floats:
    - PixelSnap: 0
    - ShoreLineTransparency: 0
    - Vector1_146CD12F: 0.95
    - Vector1_1F85EDBD: 0.1
    - Vector1_408DFC40: 310
    - Vector1_4AA589E0: 0.2
    - Vector1_5FBEA9A6: 0.01
    - Vector1_68F96C81: 1.45
    - Vector1_6C8B0029: -0.93
    - Vector1_79780521: 0
    - Vector1_7D62F249: 1.5
    - Vector1_7F0534EC: 2
    - Vector1_7F888B33: 0.75
    - Vector1_7FA20D70: 1
    - Vector1_84687C98: 10.29
    - Vector1_B7B5F5F0: 10
    - Vector1_C7789872: 1
    - Vector1_D93D534B: -0.2
    - Vector1_F7A9994D: 1.5
    - _AlphaClip: 0
    - _Blend: 0
    - _BumpScale: 1
    - _Cull: 2
    - _Cutoff: 0.5
    - _DetailNormalMapScale: 1
    - _DstBlend: 0
    - _EnableExternalAlpha: 0
    - _GlossMapScale: 1
    - _Glossiness: 0.5
    - _GlossinessSource: 0
    - _GlossyReflections: 1
    - _Metallic: 0
    - _Mode: 0
    - _OcclusionStrength: 1
    - _Parallax: 0.02
    - _QueueOffset: 0
    - _ReceiveShadows: 1
    - _Shininess: 0
    - _Smoothness: 0
    - _SmoothnessSource: 1
    - _SmoothnessTextureChannel: 0
    - _SpecSource: 0
    - _SpecularHighlights: 0
    - _SrcBlend: 1
    - _Surface: 0
    - _UVSec: 0
    - _ZWrite: 1
    m_Colors:
    - Color_2DCFF814: {r: 1, g: 1, b: 1, a: 0}
    - Color_F0366984: {r: 0.65882355, g: 0.7647059, b: 0.18431336, a: 1}
    - Color_F2866D3B: {r: 0.09411725, g: 0.16078392, b: 0.14117607, a: 1}
    - Vector2_4CF83878: {r: -0.01, g: 0.1, b: 0, a: 0}
    - Vector2_4F68BD2F: {r: 10, g: 10, b: 0, a: 0}
    - Vector2_5CD17FC6: {r: 0.03, g: 0.2, b: 0, a: 0}
    - Vector2_7972412B: {r: 1, g: 1, b: 0, a: 0}
    - Vector2_826620C8: {r: 0.1, g: 1, b: 0, a: 0}
    - _BaseColor: {r: 1, g: 1, b: 1, a: 0}
    - _Color: {r: 1, g: 1, b: 1, a: 1}
    - _EmissionColor: {r: 0, g: 0, b: 0, a: 1}
    - _Flip: {r: 1, g: 1, b: 1, a: 1}
    - _RendererColor: {r: 1, g: 1, b: 1, a: 1}
    - _SpecColor: {r: 0.5, g: 0.5, b: 0.5, a: 0.5}
--- !u!114 &2689814606496440906
MonoBehaviour:
  m_ObjectHideFlags: 11
  m_CorrespondingSourceObject: {fileID: 0}
  m_PrefabInstance: {fileID: 0}
  m_PrefabAsset: {fileID: 0}
  m_GameObject: {fileID: 0}
  m_Enabled: 1
  m_EditorHideFlags: 0
  m_Script: {fileID: 11500000, guid: d0353a89b1f911e48b9e16bdc9f2e058, type: 3}
  m_Name: 
  m_EditorClassIdentifier: 
  version: 1
