%YAML 1.1
%TAG !u! tag:unity3d.com,2011:
--- !u!114 &11400000
MonoBehaviour:
  m_ObjectHideFlags: 0
  m_CorrespondingSourceObject: {fileID: 0}
  m_PrefabInstance: {fileID: 0}
  m_PrefabAsset: {fileID: 0}
  m_GameObject: {fileID: 0}
  m_Enabled: 1
  m_EditorHideFlags: 0
  m_Script: {fileID: 11500000, guid: 50802a8c61b6a48f08d827ab6878244e, type: 3}
  m_Name: LevelInfo
  m_EditorClassIdentifier: 
  levelInfos:
  - numberOfCrowd: 100
    indexOflevelEnvironmentReference: 0
  - numberOfCrowd: 101
    indexOflevelEnvironmentReference: 0
  - numberOfCrowd: 105
    indexOflevelEnvironmentReference: 0
  - numberOfCrowd: 110
    indexOflevelEnvironmentReference: 0
  - numberOfCrowd: 117
    indexOflevelEnvironmentReference: 0
  - numberOfCrowd: 125
    indexOflevelEnvironmentReference: 1
  - numberOfCrowd: 132
    indexOflevelEnvironmentReference: 1
  - numberOfCrowd: 139
    indexOflevelEnvironmentReference: 1
  - numberOfCrowd: 144
    indexOflevelEnvironmentReference: 1
  - numberOfCrowd: 148
    indexOflevelEnvironmentReference: 1
